Homework MD 05
…
That being said, the big residuals are limited in number and do not happen often in a particular range of our x-variable, meaning this model does not systematically fail to predict part of the data and thus can be largely reliable.

Question 4

I am interested in whether language predicts average_viewers. This would give me an indication of where the most popular twitch channels come from.

I am going to begin by exploring the raw data.

twitch_data %>% 
group_by(language) %>% 
  summarize(count = n()) %>% 
   arrange(desc(count))

# A tibble: 21 × 2
   language   count
   <chr>      <int>
 1 English      485
 2 Korean        77
 3 Russian       74
 4 Spanish       68
 5 French        66
 6 Portuguese    61
 7 German        49
 8 Chinese       30
 9 Turkish       22
10 Italian       17
# ℹ 11 more rows
…
I am going to begin by setting English as my reference category, as directed in the instructions.

twitch_data <- twitch_data %>% 
  mutate(language = as.factor(language), 
         language = relevel(language, ref = "English"))

Next, I am going to run a regression where I predict average viewership (average_viewers) using language (language). I am going to save the results to an object called fit2.

fit2 <- lm(average_viewers ~ language, 
                  data = twitch_data)

#Get regression table
broom::tidy(fit2)

# A tibble: 21 × 5
   term              estimate std.error statistic  p.value
   <chr>                <dbl>     <dbl>     <dbl>    <dbl>
 1 (Intercept)          5113.      385.    13.3   3.47e-37
 2 languageArabic        569.     3808.     0.150 8.81e- 1
 3 languageChinese     -1688.     1594.    -1.06  2.90e- 1
 4 languageCzech       -3285.     3480.    -0.944 3.45e- 1
 5 languageFinnish     -4086.     8480.    -0.482 6.30e- 1
 6 languageFrench      -1606.     1111.    -1.45  1.49e- 1
 7 languageGerman       -835.     1270.    -0.657 5.11e- 1
 8 languageGreek       -3152.     8480.    -0.372 7.10e- 1
 9 languageHungarian   -2972.     6002.    -0.495 6.21e- 1
10 languageItalian     -2907.     2090.    -1.39  1.65e- 1
# ℹ 11 more rows
…
